%!PS-Adobe-3.0 EPSF-3.0
%%BoundingBox: 60 683 367 788
%%Title: unordered
%%CreationDate: Thu Apr 11 22:41:47 2013
%%Creator: Tgif-4.2-1land5.2 written by William Chia-Wei Cheng (bill.cheng@acm.org)
%%ProducedBy: (unknown)
%%Pages: 1
%%DocumentFonts: (atend)
%%EndComments
%%BeginProlog

/tgifdict 54 dict def
tgifdict begin

/tgifarrowtipdict 8 dict def
tgifarrowtipdict /mtrx matrix put

/TGAT % tgifarrowtip
 { tgifarrowtipdict begin
      /dy exch def
      /dx exch def
      /h exch def
      /w exch def
      /y exch def
      /x exch def
      /savematrix mtrx currentmatrix def
      x y translate
      dy dx atan rotate
      0 0 moveto
      w neg h lineto
      w neg h neg lineto
      savematrix setmatrix
   end
 } def

/TGMAX
 { exch dup 3 1 roll exch dup 3 1 roll gt { pop } { exch pop } ifelse
 } def
/TGMIN
 { exch dup 3 1 roll exch dup 3 1 roll lt { pop } { exch pop } ifelse
 } def
/TGSW { stringwidth pop } def
/tgifstrw 0 def

/bd { bind def } bind def

/GS { gsave } bd
/GR { grestore } bd
/NP { newpath } bd
/CP { closepath } bd
/CHP { charpath } bd
/CT { curveto } bd
/L { lineto } bd
/RL { rlineto } bd
/M { moveto } bd
/RM { rmoveto } bd
/S { stroke } bd
/F { fill } bd
/TR { translate } bd
/RO { rotate } bd
/SC { scale } bd
/MU { mul } bd
/DI { div } bd
/DU { dup } bd
/NE { neg } bd
/AD { add } bd
/SU { sub } bd
/PO { pop } bd
/EX { exch } bd
/CO { concat } bd
/CL { clip } bd
/EC { eoclip } bd
/EF { eofill } bd
/IM { image } bd
/IMM { imagemask } bd
/ARY { array } bd
/SG { setgray } bd
/RG { setrgbcolor } bd
/SD { setdash } bd
/W { setlinewidth } bd
/SM { setmiterlimit } bd
/SLC { setlinecap } bd
/SLJ { setlinejoin } bd
/SH { show } bd
/FF { findfont } bd
/MS { makefont setfont } bd
/AR { arcto 4 {pop} repeat } bd
/CURP { currentpoint } bd
/FLAT { flattenpath strokepath clip newpath } bd
/TGSM { tgiforigctm setmatrix } def
/TGRM { savematrix setmatrix } def

end

%%EndProlog
%%Page: 1 1

%%PageBoundingBox: 60 683 367 788
tgifdict begin
/tgifsavedpage save def

1 SM
1 W

0 SG

72 0 MU 72 11.602 MU TR
72 128 DI 100.000 MU 100 DI DU NE SC

GS

/tgiforigctm matrix currentmatrix def

% POLY/OPEN-SPLINE
0 SG
GS
   NP
      200 100 M
      0 450 atan DU cos 10.000 MU 650 exch SU
      exch sin 10.000 MU 100 exch SU L
   TGSM
   2 W
   S
   1 W
GR
GS
   TGSM
   NP
      650 100 10.000 4.000 450 0 TGAT
   1 SG CP F
   0 SG
   NP
      650 100 10.000 4.000 450 0 TGAT
   CP F
GR

% POLY/OPEN-SPLINE
0 SG
GS
   NP
      200 200 M
      0 450 atan DU cos 10.000 MU 650 exch SU
      exch sin 10.000 MU 200 exch SU L
   TGSM
   2 W
   S
   1 W
GR
GS
   TGSM
   NP
      650 200 10.000 4.000 450 0 TGAT
   1 SG CP F
   0 SG
   NP
      650 200 10.000 4.000 450 0 TGAT
   CP F
GR

% TEXT
NP
0 SG
   GS
      1 W
      110 100 M
      GS
            0 SG
            /Helvetica FF [14 0 0 -14 0 0] MS
            (Leader) SH
      GR
   GR

% TEXT
NP
0 SG
   GS
      1 W
      110 200 M
      GS
            0 SG
            /Helvetica FF [14 0 0 -14 0 0] MS
            (Pig) SH
      GR
   GR

% POLY/OPEN-SPLINE
0 SG
GS
   NP
      250 100 M
      100 50 atan DU cos 10.000 MU 300 exch SU
      exch sin 10.000 MU 200 exch SU L
   TGSM
   2 W
   S
   1 W
GR
GS
   TGSM
   NP
      300 200 10.000 4.000 50 100 TGAT
   1 SG CP F
   0 SG
   NP
      300 200 10.000 4.000 50 100 TGAT
   CP F
GR

% BOX
1.000 0.000 0.000 RG
GS
   10 SM
   GS
      NP 310 190 M 350 190 L 350 210 L 310 210 L CP
      2 W
      [2 2] 0 SD
      S
   GR
GR

% TEXT
NP
0 SG
   GS
      1 W
      310 230 M
      GS
        GS
        0
            /Helvetica FF [14 0 0 -14 0 0] MS
            (C) TGSW 
        AD
            /Helvetica FF [10 0 0 -10 0 0] MS
            (1) TGSW 
        AD
            /Helvetica FF [14 0 0 -14 0 0] MS
            ( = update) TGSW 
        AD
        GR
      NE 0 RM
            1.000 0.000 0.000 RG
            /Helvetica FF [14 0 0 -14 0 0] MS
            (C) SH
            1.000 0.000 0.000 RG
            /Helvetica FF [10 0 0 -10 0 0] MS
            (1) SH
            1.000 0.000 0.000 RG
            /Helvetica FF [14 0 0 -14 0 0] MS
            ( = update) SH
      GR
      0 17 RM
      GS
        GS
        0
            /Helvetica FF [14 0 0 -14 0 0] MS
            (clock\(C,T) TGSW 
        AD
            /Helvetica FF [10 0 0 -10 0 0] MS
            (m) TGSW 
        AD
            /Helvetica FF [14 0 0 -14 0 0] MS
            (\)) TGSW 
        AD
        GR
      NE 0 RM
            1.000 0.000 0.000 RG
            /Helvetica FF [14 0 0 -14 0 0] MS
            (clock\(C,T) SH
            1.000 0.000 0.000 RG
            /Helvetica FF [10 0 0 -10 0 0] MS
            (m) SH
            1.000 0.000 0.000 RG
            /Helvetica FF [14 0 0 -14 0 0] MS
            (\)) SH
      GR
      0 17 RM
      GS
        GS
        0
            /Helvetica FF [14 0 0 -14 0 0] MS
            (<C) TGSW 
        AD
            /Helvetica FF [10 0 0 -10 0 0] MS
            (1) TGSW 
        AD
            /Helvetica FF [14 0 0 -14 0 0] MS
            ( = 2>) TGSW 
        AD
        GR
      NE 0 RM
            1.000 0.000 0.000 RG
            /Helvetica FF [14 0 0 -14 0 0] MS
            (<C) SH
            1.000 0.000 0.000 RG
            /Helvetica FF [10 0 0 -10 0 0] MS
            (1) SH
            1.000 0.000 0.000 RG
            /Helvetica FF [14 0 0 -14 0 0] MS
            ( = 2>) SH
      GR
   GR

% TEXT
NP
0 SG
   GS
      1 W
      260 130 M
      GS
        GS
        0
            /Helvetica FF [14 0 0 -14 0 0] MS
            (Take shelter) TGSW 
        AD
        GR
      NE 0 RM
            1.000 0.000 0.000 RG
            /Helvetica FF [14 0 0 -14 0 0] MS
            (Take shelter) SH
      GR
      0 17 RM
      GS
        GS
        0
            /Helvetica FF [14 0 0 -14 0 0] MS
            (T) TGSW 
        AD
            /Helvetica FF [10 0 0 -10 0 0] MS
            (m) TGSW 
        AD
            /Helvetica FF [14 0 0 -14 0 0] MS
            (=1) TGSW 
        AD
        GR
      NE 0 RM
            1.000 0.000 0.000 RG
            /Helvetica FF [14 0 0 -14 0 0] MS
            (T) SH
            1.000 0.000 0.000 RG
            /Helvetica FF [10 0 0 -10 0 0] MS
            (m) SH
            1.000 0.000 0.000 RG
            /Helvetica FF [14 0 0 -14 0 0] MS
            (=1) SH
      GR
   GR

% POLY/OPEN-SPLINE
0 SG
GS
   NP
      310 100 M
      100 50 atan DU cos 10.000 MU 360 exch SU
      exch sin 10.000 MU 200 exch SU L
   TGSM
   2 W
   S
   1 W
GR
GS
   TGSM
   NP
      360 200 10.000 4.000 50 100 TGAT
   1 SG CP F
   0 SG
   NP
      360 200 10.000 4.000 50 100 TGAT
   CP F
GR

% BOX
0.000 0.000 1.000 RG
GS
   10 SM
   GS
      NP 360 190 M 400 190 L 400 210 L 360 210 L CP
      2 W
      [2 2] 0 SD
      S
   GR
GR

% TEXT
NP
0 SG
   GS
      1 W
      330 130 M
      GS
            0.000 0.000 1.000 RG
            /Helvetica FF [14 0 0 -14 0 0] MS
            (Bird landed) SH
      GR
      0 17 RM
      GS
            0.000 0.000 1.000 RG
            /Helvetica FF [14 0 0 -14 0 0] MS
            (T) SH
            0.000 0.000 1.000 RG
            /Helvetica FF [10 0 0 -10 0 0] MS
            (m') SH
            0.000 0.000 1.000 RG
            /Helvetica FF [14 0 0 -14 0 0] MS
            (=2) SH
      GR
   GR

% TEXT
NP
0 SG
   GS
      1 W
      330 230 M
      GS
            0.000 0.000 1.000 RG
            /Helvetica FF [14 0 0 -14 0 0] MS
            (C) SH
            0.000 0.000 1.000 RG
            /Helvetica FF [10 0 0 -10 0 0] MS
            (2) SH
            0.000 0.000 1.000 RG
            /Helvetica FF [14 0 0 -14 0 0] MS
            ( = update) SH
      GR
      0 17 RM
      GS
            0.000 0.000 1.000 RG
            /Helvetica FF [14 0 0 -14 0 0] MS
            (clock\(C,T) SH
            0.000 0.000 1.000 RG
            /Helvetica FF [10 0 0 -10 0 0] MS
            (m') SH
            0.000 0.000 1.000 RG
            /Helvetica FF [14 0 0 -14 0 0] MS
            (\)) SH
      GR
      0 17 RM
      GS
            0.000 0.000 1.000 RG
            /Helvetica FF [14 0 0 -14 0 0] MS
            (<C) SH
            0.000 0.000 1.000 RG
            /Helvetica FF [10 0 0 -10 0 0] MS
            (2) SH
            0.000 0.000 1.000 RG
            /Helvetica FF [14 0 0 -14 0 0] MS
            ( = 3>) SH
      GR
   GR

% BOX
1.000 0.000 0.000 RG
GS
   10 SM
   GS
      NP 510 190 M 600 190 L 600 210 L 510 210 L CP
      2 W
      [2 2] 0 SD
      S
   GR
GR

% BOX
0.000 0.000 1.000 RG
GS
   10 SM
   GS
      NP 410 190 M 500 190 L 500 210 L 410 210 L CP
      2 W
      [2 2] 0 SD
      S
   GR
GR

% TEXT
NP
0 SG
   GS
      1 W
      550 230 M
      GS
        GS
        0
            /Helvetica FF [14 0 0 -14 0 0] MS
            (process e) TGSW 
        AD
            /Helvetica FF [10 0 0 -10 0 0] MS
            (1) TGSW 
        AD
        GR
      2 DI NE 0 RM
            1.000 0.000 0.000 RG
            /Helvetica FF [14 0 0 -14 0 0] MS
            (process e) SH
            1.000 0.000 0.000 RG
            /Helvetica FF [10 0 0 -10 0 0] MS
            (1) SH
      GR
      0 17 RM
      GS
        GS
        0
            /Helvetica FF [14 0 0 -14 0 0] MS
            (take_shelter\(\)) TGSW 
        AD
        GR
      2 DI NE 0 RM
            1.000 0.000 0.000 RG
            /Helvetica FF [14 0 0 -14 0 0] MS
            (take_shelter\(\)) SH
      GR
   GR

% TEXT
NP
0 SG
   GS
      1 W
      450 230 M
      GS
        GS
        0
            /Helvetica FF [14 0 0 -14 0 0] MS
            (process e) TGSW 
        AD
            /Helvetica FF [10 0 0 -10 0 0] MS
            (2) TGSW 
        AD
        GR
      2 DI NE 0 RM
            0.000 0.000 1.000 RG
            /Helvetica FF [14 0 0 -14 0 0] MS
            (process e) SH
            0.000 0.000 1.000 RG
            /Helvetica FF [10 0 0 -10 0 0] MS
            (2) SH
      GR
      0 17 RM
      GS
        GS
        0
            /Helvetica FF [14 0 0 -14 0 0] MS
            (bird_landed\(\)) TGSW 
        AD
        GR
      2 DI NE 0 RM
            0.000 0.000 1.000 RG
            /Helvetica FF [14 0 0 -14 0 0] MS
            (bird_landed\(\)) SH
      GR
   GR

GR
tgifsavedpage restore
end
showpage

%%Trailer
%MatchingCreationDate: Thu Apr 11 22:41:47 2013
%%DocumentFonts: Helvetica
%%EOF
